{
  "equipmentContractAdd.name": "Name",
  "equipmentContractAdd.identifier": "Identifier",
  "equipmentContractAdd.startDate": "Start Date",
  "equipmentContractAdd.endDate": "End Date",
  "equipmentContractAdd.terms": "Terms",
  "equipmentContractAdd.description": "Description",
  "equipmentContractAdd.coverage": "Coverage",
  "equipmentContractAdd.date": "Date",
  "equipmentContractAdd.vendor": "Vendor",
  "equipmentContractAdd.addEquipmentContract": "Add New Contract",
  "equipmentContractAdd.equipmentContractSavedSuccessfully": "Contract saved successfully",
  "equipmentContractAdd.equipmentContractFailedToSave": "Failed to save contract",
  "equipmentContractAdd.equipmentContractNameDuplicated": "The contract name is duplicated",
  "equipmentContractAdd.Name": "Name",
  "equipmentContractAdd.add": "Add New Contract",
  "equipmentContractAdd.addFacility": "Add Facility",
  "equipmentContractAdd.addEquipment": "Add Equipment",
  "equipmentContractAdd.addServiceType": "Add Service Type",
  "equipmentContractAdd.cancel": "Cancel",
  "equipmentContractAdd.actions": "Actions",
  "equipmentContractAdd.remove": "Remove",
  "equipmentContractAdd.facility": "Facility",
  "equipmentContractAdd.facilityTitle": "A list of facilities associated with this contract",
  "equipmentContractAdd.facilityDescription": "Select facilities to be associated with this contract. These are the facilities which the associated vendor is eligible to provide maintenance for.",
  "equipmentContractAdd.noMatchesForFacility": "There are no facilities associated with the contract",
  "equipmentContractAdd.validEquipmentContractFacilityDuplicated": "Given facility is already associated with the contract",
  "equipmentContractAdd.equipment": "Equipment",
  "equipmentContractAdd.equipmentTitle": "A list of equipments associated with this contract",
  "equipmentContractAdd.equipmentDescription": "Select equipments to be associated with this contract. These are the equipments which the associated vendor is eligible to provide maintenance for.",
  "equipmentContractAdd.noMatchesForEquipment": "There are no equipments associated with the contract",
  "equipmentContractAdd.validEquipmentContractEquipmentDuplicated": "Given equipment is already associated with the contract",
  "equipmentContractAdd.serviceType": "Service Type",
  "equipmentContractAdd.serviceTypeTitle": "A list of service types associated with this contract",
  "equipmentContractAdd.serviceTypeDescription": "Select service types to be associated with this contract. These are the serviceTypes which the associated vendor is eligible to provide maintenance for.",
  "equipmentContractAdd.noMatchesForServiceType": "There are no service types associated with the contract",
  "equipmentContractAdd.validEquipmentContractServiceTypeDuplicated": "Given service type is already associated with the contract"
}