{
  "equipmentType.addEquipmentType":"Add Equipment Type",
  "equipmentType.TypeName": "Type Name",
  "equipmentType.typeCode": "Type Code",
  "equipmentType.typeDisplayOrder": "Display Order",
  "equipmentType.typeHasBeenSaved": "Equipment Type has been saved",
  "equipmentType.failedToSaveType": "Failed to save Equipment Type",
  "equipmentType.cancel": "Cancel",
  "equipmentType.save": "Save",
  "equipmentType.active": "Active",
  "equipmentType.isBioChemistry": "Is Bio Chemistry",
  "equipmentType.isColdChain": "Is Cold Chain"
}