{
    "equipmentInventoryList.region": "Region",
    "equipmentInventoryList.district": "District",
    "equipmentInventoryList.equipment": "Equipment",
    "equipmentInventoryList.manufacturer": "Manufacturer",
    "equipmentInventoryList.model": "Model",
    "equipmentInventoryList.addEquipment": "Add Equipment",
    "equipmentInventoryList.equipmentInventory": "Inventory",
    "equipmentInventoryList.facility": "Facility",
    "equipmentInventoryList.program": "Program",
    "equipmentInventoryList.serialNo": "Serial No.",
    "equipmentInventoryList.makeModel": "Make/Model",
    "equipmentInventoryList.type": "Type",
    "equipmentInventoryList.functionalStatus": "Functional Status",
    "equipmentInventoryList.lastUpdated": "Last Updated",
    "equipmentInventoryList.yearInstalled": "Year Installed",
    "equipmentInventoryList.referenceName": "Reference Name",
    "equipmentInventoryList.actions": "Actions",
    "equipmentInventoryList.view": "View",
    "equipmentInventoryList.noInventoryItems": "No inventory items found.",
    "equipmentInventoryList.search": "Search",
    "equipmentInventoryList.requestService": "Request service",
    "equipmentInventoryList.log": "Log"
}