{
    "reasonNotFunctionalList.reasonsNotFunctional": "Reasons Not Functional",
    "reasonNotFunctionalList.addReasonNotFunctional": "Add Reason Not Functional",
    "reasonNotFunctionalList.noReasonNotFunctional": "No Reason Not Functional found.",
    "reasonNotFunctionalList.reasonNotFunctionalCode": "Code",
    "reasonNotFunctionalList.reasonNotFunctionalName": "Name",
    "reasonNotFunctionalList.actions": "Actions",
    "reasonNotFunctionalList.edit": "Edit"
}
