{
  "equipment.programEquipments": "Program Equipments",
  "program.addEquipment": "Add Program Equipment",
  "program.displayOrder": "Display Order",
  "program.equipmentType": "Equipment Type",
  "programEquipment.typeHasBeenDeleted": "Program Equipment  has been deleted",
  "programEquipment.failedToDeleteType": "Failed to delete Program equipment",
  "program.name": "Program",
  "program.actions": "Actions",
  "programEquipment.delete": "Delete",
  "program.noEquipments": "No Program Equipment Type",
  "equipment.service": "Equipment",
  "program.withEnableTotalColumn": "EnableTotalColumn",
  "program.enableTestCount": "EnableTestCount",
  "equipmentType.edit": "Edit"

}

