{
    "equipmentFundSourceList.equipmentFundSources": "Equipment Fund Sources",
    "equipmentFundSourceList.addEquipmentFundSource": "Add Equipment Fund Source",
    "equipmentFundSourceList.noEquipmentFundSources": "No Equipment Fund Sources Found.",
    "equipmentFundSourceList.equipmentFundSourceCode": "Code",
    "equipmentFundSourceList.equipmentFundSourceName": "Name",
    "equipmentFundSourceList.actions": "Actions",
    "equipmentFundSourceList.edit": "Edit"
}
