{
  "equipmentContractEdit.cancel": "Cancel",
  "equipmentContractEdit.editEquipmentContract": "Edit Contract",
  "equipmentContractEdit.updateEquipmentContract": "Update Contract",
  "equipmentContractEdit.update": "Update",
  "equipmentContractEdit.edit": "Edit"
}
