{
    "disciplineAdd.addDiscipline": "Add Discipline",
    "disciplineAdd.disciplineName": "Discipline Name",
    "disciplineAdd.disciplineCode": "Discipline Code",
    "disciplineAdd.disciplineDisplayOrder": "Display Order",
    "disciplineAdd.disciplineHasBeenSaved": "Discipline has been saved",
    "disciplineAdd.failedToSaveDiscipline": "Failed to save discipline",
    "disciplineAdd.cancel": "Cancel",
    "disciplineAdd.save": "Save",
    "disciplineView.enabled": "Enabled"
}
