{
  "equipmentContractView.view": "View",
  "equipmentContractView.identifier": "Identifier",
  "equipmentContractView.startDate": "Start Date",
  "equipmentContractView.endDate": "End Date",
  "equipmentContractView.terms": "Terms",
  "equipmentContractView.description": "Description",
  "equipmentContractView.coverage": "Coverage",
  "equipmentContractView.date": "Signed Date",
  "equipmentContractView.vendor": "Vendor",
  "equipmentContractView.facilities": "A list of facilities associated with this contract",
  "equipmentContractView.equipments": "A list of equipments associated with this contract",
  "equipmentContractView.serviceTypes": "A list of service types associated with this contract"
}
